cpu/cpu/test_cpu.vcd
$date
	Mon Aug 15 13:33:02 2022
$end
$version
	Icarus Verilog
$end
$timescale
	100fs
$end
$scope module test_cpu $end
$scope module cpu $end
$var wire 1 ! clk $end
$var wire 1 " reset $end
$var wire 5 # rwW [4:0] $end
$var wire 5 $ rwM [4:0] $end
$var wire 5 % rwE_tmp [4:0] $end
$var wire 5 & rwE [4:0] $end
$var wire 5 ' rwD [4:0] $end
$var wire 1 ( isShiftE $end
$var wire 1 ) isShiftD $end
$var wire 1 * isLWHazard $end
$var wire 1 + isJalE $end
$var wire 1 , isJalD $end
$var wire 32 - bM [31:0] $end
$var wire 32 . bE [31:0] $end
$var wire 32 / bD [31:0] $end
$var wire 32 0 aE [31:0] $end
$var wire 32 1 aD [31:0] $end
$var wire 32 2 WBSrc [31:0] $end
$var wire 1 3 StopM $end
$var wire 1 4 StopF $end
$var wire 1 5 StopE $end
$var wire 1 6 StopD $end
$var wire 1 7 RegWriteW $end
$var wire 1 8 RegWriteM $end
$var wire 1 9 RegWriteE $end
$var wire 1 : RegWriteD $end
$var wire 32 ; PC_J [31:0] $end
$var wire 32 < PC_B [31:0] $end
$var wire 2 = PCSource [1:0] $end
$var wire 32 > PC4E [31:0] $end
$var wire 32 ? PC4D [31:0] $end
$var wire 32 @ PC4 [31:0] $end
$var wire 1 A MemtoRegW $end
$var wire 1 B MemtoRegM $end
$var wire 1 C MemtoRegE $end
$var wire 1 D MemtoRegD $end
$var wire 1 E MemWriteM $end
$var wire 1 F MemWriteE $end
$var wire 1 G MemWriteD $end
$var wire 32 H MemOutW [31:0] $end
$var wire 32 I MemOutM [31:0] $end
$var wire 32 J InstructionF [31:0] $end
$var wire 32 K InstructionD [31:0] $end
$var wire 32 L ImmE [31:0] $end
$var wire 32 M ImmD [31:0] $end
$var wire 1 N ALUSrcE $end
$var wire 1 O ALUSrcD $end
$var wire 32 P ALUOutW [31:0] $end
$var wire 32 Q ALUOutM [31:0] $end
$var wire 32 R ALUOutE [31:0] $end
$var wire 5 S ALUControlE [4:0] $end
$var wire 5 T ALUControlD [4:0] $end
$scope module execute $end
$var wire 5 U rwE [4:0] $end
$var wire 5 V rwE_tmp [4:0] $end
$var wire 1 + isJalE $end
$var wire 32 W bE [31:0] $end
$var wire 32 X aE [31:0] $end
$var wire 32 Y PC4E_jal [31:0] $end
$var wire 32 Z PC4E [31:0] $end
$var wire 32 [ ImmE [31:0] $end
$var wire 1 N ALUSrcE $end
$var wire 32 \ ALUOutE [31:0] $end
$var wire 32 ] ALUOut [31:0] $end
$var wire 5 ^ ALUControlE [4:0] $end
$var wire 32 _ ALUBSrc [31:0] $end
$scope module alu $end
$var wire 32 ` B [31:0] $end
$var wire 32 a result [31:0] $end
$var wire 5 b ALUControl [4:0] $end
$var wire 32 c A [31:0] $end
$var reg 32 d regA [31:0] $end
$var reg 32 e regB [31:0] $end
$var reg 32 f reg_result [31:0] $end
$var reg 32 g temp [31:0] $end
$var integer 32 h i [31:0] $end
$upscope $end
$upscope $end
$scope module instruction_decode $end
$var wire 32 i ALUOutE [31:0] $end
$var wire 1 j StopD_tmp $end
$var wire 32 k WBSrc [31:0] $end
$var wire 1 ! clk $end
$var wire 1 * isLWHazard $end
$var wire 1 " reset $end
$var wire 5 l rwE [4:0] $end
$var wire 1 m sign_bit $end
$var wire 32 n sa [31:0] $end
$var wire 5 o rwW [4:0] $end
$var wire 5 p rwM [4:0] $end
$var wire 5 q rwD_tmp [4:0] $end
$var wire 5 r rwD [4:0] $end
$var wire 5 s rt [4:0] $end
$var wire 5 t rs [4:0] $end
$var wire 32 u rf_outb [31:0] $end
$var wire 32 v rf_outa [31:0] $end
$var wire 5 w rd [4:0] $end
$var wire 6 x op [5:0] $end
$var wire 32 y offset [31:0] $end
$var wire 1 z isShiftD_tmp $end
$var wire 1 ) isShiftD $end
$var wire 1 { isJalD_tmp $end
$var wire 1 , isJalD $end
$var wire 1 | isBranchHazard $end
$var wire 16 } imm [15:0] $end
$var wire 6 ~ func [5:0] $end
$var wire 32 !" da_tmp [31:0] $end
$var wire 32 "" bD [31:0] $end
$var wire 32 #" aD [31:0] $end
$var wire 1 $" XORI $end
$var wire 1 %" XOR $end
$var wire 1 &" SignExtD $end
$var wire 1 '" SW $end
$var wire 1 (" SUBU $end
$var wire 1 )" SUB $end
$var wire 1 *" SRLV $end
$var wire 1 +" SRL $end
$var wire 1 ," SRAV $end
$var wire 1 -" SRA $end
$var wire 1 ." SLT $end
$var wire 1 /" SLLV $end
$var wire 1 0" SLL $end
$var wire 1 7 RegWriteW $end
$var wire 1 8 RegWriteM $end
$var wire 1 9 RegWriteE $end
$var wire 1 1" RegWriteD_tmp $end
$var wire 1 : RegWriteD $end
$var wire 1 2" RegDstRtD $end
$var wire 32 3" PC_J_JAL [31:0] $end
$var wire 32 4" PC_JR [31:0] $end
$var wire 32 5" PC_J [31:0] $end
$var wire 32 6" PC_B [31:0] $end
$var wire 2 7" PCSourceD [1:0] $end
$var wire 32 8" PC4D [31:0] $end
$var wire 1 9" ORI $end
$var wire 1 :" OR $end
$var wire 1 ;" NOR $end
$var wire 1 B MemtoRegM $end
$var wire 1 C MemtoRegE $end
$var wire 1 <" MemtoRegD_tmp $end
$var wire 1 D MemtoRegD $end
$var wire 1 =" MemWriteD_tmp $end
$var wire 1 G MemWriteD $end
$var wire 32 >" MemOutM [31:0] $end
$var wire 1 ?" LW $end
$var wire 1 @" J_sign_bit $end
$var wire 1 A" JR $end
$var wire 1 B" JAL $end
$var wire 1 C" J $end
$var wire 32 D" InstructionD [31:0] $end
$var wire 32 E" ImmD [31:0] $end
$var wire 2 F" ForwardB [1:0] $end
$var wire 2 G" ForwardA [1:0] $end
$var wire 1 H" BNE $end
$var wire 1 I" BEQ $end
$var wire 1 J" ANDI $end
$var wire 1 K" AND $end
$var wire 1 L" ALUSrcD_tmp $end
$var wire 1 O ALUSrcD $end
$var wire 32 M" ALUOutM [31:0] $end
$var wire 5 N" ALUControlD_tmp [4:0] $end
$var wire 5 O" ALUControlD [4:0] $end
$var wire 1 P" ADDU $end
$var wire 1 Q" ADDIU $end
$var wire 1 R" ADDI $end
$var wire 1 S" ADD $end
$scope module bi $end
$var wire 32 T" PC4D_tmp [31:0] $end
$var wire 1 j StopD_tmp $end
$var wire 1 ! clk $end
$var wire 1 * isLWHazard $end
$var wire 1 " reset $end
$var wire 5 U" rwD_tmp [4:0] $end
$var wire 1 z isShiftD_tmp $end
$var wire 1 { isJalD_tmp $end
$var wire 1 1" RegWriteD_tmp $end
$var wire 1 <" MemtoRegD_tmp $end
$var wire 1 =" MemWriteD_tmp $end
$var wire 1 L" ALUSrcD_tmp $end
$var wire 5 V" ALUControlD_tmp [4:0] $end
$var reg 5 W" ALUControlD [4:0] $end
$var reg 1 O ALUSrcD $end
$var reg 1 G MemWriteD $end
$var reg 1 D MemtoRegD $end
$var reg 1 : RegWriteD $end
$var reg 1 X" StopD $end
$var reg 1 , isJalD $end
$var reg 1 ) isShiftD $end
$var reg 5 Y" rwD [4:0] $end
$upscope $end
$scope module cu $end
$var wire 1 L" ALUSrc $end
$var wire 1 =" MemWrite $end
$var wire 1 <" MemtoReg $end
$var wire 1 2" RegDstRt $end
$var wire 1 1" RegWrite $end
$var wire 1 &" SignExt $end
$var wire 1 | isBranchHazard $end
$var wire 1 { isJal $end
$var wire 1 z isShift $end
$var wire 1 $" XORI $end
$var wire 1 %" XOR $end
$var wire 1 '" SW $end
$var wire 1 (" SUBU $end
$var wire 1 )" SUB $end
$var wire 1 *" SRLV $end
$var wire 1 +" SRL $end
$var wire 1 ," SRAV $end
$var wire 1 -" SRA $end
$var wire 1 ." SLT $end
$var wire 1 /" SLLV $end
$var wire 1 0" SLL $end
$var wire 2 Z" PCSource [1:0] $end
$var wire 1 9" ORI $end
$var wire 1 :" OR $end
$var wire 1 ;" NOR $end
$var wire 1 ?" LW $end
$var wire 1 A" JR $end
$var wire 1 B" JAL $end
$var wire 1 C" J $end
$var wire 1 H" BNE $end
$var wire 1 I" BEQ $end
$var wire 1 J" ANDI $end
$var wire 1 K" AND $end
$var wire 5 [" ALUControl [4:0] $end
$var wire 1 P" ADDU $end
$var wire 1 Q" ADDIU $end
$var wire 1 R" ADDI $end
$var wire 1 S" ADD $end
$upscope $end
$scope module forwarding_da $end
$var wire 32 \" a0 [31:0] $end
$var wire 32 ]" a1 [31:0] $end
$var wire 2 ^" s [1:0] $end
$var wire 32 _" a3 [31:0] $end
$var wire 32 `" a2 [31:0] $end
$var reg 32 a" out [31:0] $end
$upscope $end
$scope module forwarding_db $end
$var wire 32 b" a1 [31:0] $end
$var wire 2 c" s [1:0] $end
$var wire 32 d" a3 [31:0] $end
$var wire 32 e" a2 [31:0] $end
$var wire 32 f" a0 [31:0] $end
$var reg 32 g" out [31:0] $end
$upscope $end
$scope module fu $end
$var wire 1 =" MemWriteD $end
$var wire 1 2" RegDstRtD $end
$var wire 5 h" rs [4:0] $end
$var wire 5 i" rt [4:0] $end
$var wire 5 j" rwE [4:0] $end
$var wire 5 k" rwM [4:0] $end
$var wire 1 8 RegWriteM $end
$var wire 1 9 RegWriteE $end
$var wire 1 B MemtoRegM $end
$var wire 1 C MemtoRegE $end
$var wire 2 l" ForwardB [1:0] $end
$var wire 2 m" ForwardA [1:0] $end
$upscope $end
$scope module ins_de $end
$var wire 6 n" func [5:0] $end
$var wire 6 o" op [5:0] $end
$var wire 32 p" inst [31:0] $end
$var wire 1 $" XORI $end
$var wire 1 %" XOR $end
$var wire 1 '" SW $end
$var wire 1 (" SUBU $end
$var wire 1 )" SUB $end
$var wire 1 *" SRLV $end
$var wire 1 +" SRL $end
$var wire 1 ," SRAV $end
$var wire 1 -" SRA $end
$var wire 1 ." SLT $end
$var wire 1 /" SLLV $end
$var wire 1 0" SLL $end
$var wire 1 9" ORI $end
$var wire 1 :" OR $end
$var wire 1 ;" NOR $end
$var wire 1 ?" LW $end
$var wire 1 A" JR $end
$var wire 1 B" JAL $end
$var wire 1 C" J $end
$var wire 1 H" BNE $end
$var wire 1 I" BEQ $end
$var wire 1 J" ANDI $end
$var wire 1 K" AND $end
$var wire 1 P" ADDU $end
$var wire 1 Q" ADDIU $end
$var wire 1 R" ADDI $end
$var wire 1 S" ADD $end
$var reg 27 q" instruction_type [26:0] $end
$upscope $end
$scope module rf $end
$var wire 32 r" WBSrc [31:0] $end
$var wire 1 ! clk $end
$var wire 1 " reset $end
$var wire 32 s" rf_outa [31:0] $end
$var wire 32 t" rf_outb [31:0] $end
$var wire 5 u" rna [4:0] $end
$var wire 5 v" rnb [4:0] $end
$var wire 5 w" rwW [4:0] $end
$var wire 1 7 RegWriteW $end
$var reg 32 x" reg_qa [31:0] $end
$var reg 32 y" reg_qb [31:0] $end
$var integer 32 z" reg_i [31:0] $end
$upscope $end
$upscope $end
$scope module instruction_fetch $end
$var wire 2 {" PCSource [1:0] $end
$var wire 32 |" PC_B [31:0] $end
$var wire 32 }" PC_J [31:0] $end
$var wire 1 4 StopF $end
$var wire 32 ~" aD [31:0] $end
$var wire 1 ! clk $end
$var wire 1 * isLWHazard $end
$var wire 32 !# nop [31:0] $end
$var wire 1 " reset $end
$var wire 32 "# wire_pc [31:0] $end
$var wire 32 ## next_pc [31:0] $end
$var wire 32 $# fetched_ins [31:0] $end
$var wire 32 %# PC4 [31:0] $end
$var wire 32 &# InstructionF [31:0] $end
$var reg 32 '# reg_pc [31:0] $end
$var reg 1 (# stop $end
$scope module new_pc $end
$var wire 32 )# a0 [31:0] $end
$var wire 32 *# a1 [31:0] $end
$var wire 32 +# a2 [31:0] $end
$var wire 32 ,# a3 [31:0] $end
$var wire 2 -# s [1:0] $end
$var reg 32 .# out [31:0] $end
$upscope $end
$scope module ram $end
$var wire 32 /# FETCH_ADDRESS [31:0] $end
$var wire 1 4 stop $end
$var reg 32 0# DATA [31:0] $end
$scope begin InstructionRAM_blockRamFile $end
$upscope $end
$upscope $end
$upscope $end
$scope module memory $end
$var wire 1 ! clk $end
$var wire 1 1# enable $end
$var wire 32 2# fetch_address [31:0] $end
$var wire 1 " reset $end
$var wire 65 3# edit_serial [64:0] $end
$var wire 32 4# datain [31:0] $end
$var wire 32 5# bM [31:0] $end
$var wire 1 3 StopM $end
$var wire 1 B MemtoRegM $end
$var wire 1 E MemWriteM $end
$var wire 32 6# MemOutW [31:0] $end
$var wire 32 7# MemOutM [31:0] $end
$var wire 32 8# ALUOutM [31:0] $end
$scope module ram $end
$var wire 1 ! CLOCK $end
$var wire 65 9# EDIT_SERIAL [64:0] $end
$var wire 1 1# ENABLE $end
$var wire 32 :# FETCH_ADDRESS [31:0] $end
$var wire 64 ;# wild_0 [63:0] $end
$var wire 64 <# wild [63:0] $end
$var wire 1 3 stop $end
$var wire 64 =# ds [63:0] $end
$var wire 64 ># \c$wild_app_arg_0 [63:0] $end
$var wire 64 ?# \c$wild_app_arg [63:0] $end
$var wire 32 @# \c$i [31:0] $end
$var wire 1 A# \c$app_arg $end
$var wire 64 B# a1 [63:0] $end
$var reg 32 C# DATA [31:0] $end
$var reg 16384 D# ram_init [16383:0] $end
$var integer 32 E# i [31:0] $end
$var integer 32 F# outfile [31:0] $end
$scope begin DATA_blockRam $end
$upscope $end
$upscope $end
$upscope $end
$scope module reg_ex_mem $end
$var wire 32 G# ALUOutE [31:0] $end
$var wire 1 ! clk $end
$var wire 1 " reset $end
$var wire 5 H# rwE [4:0] $end
$var wire 32 I# bE [31:0] $end
$var wire 1 5 StopE $end
$var wire 1 9 RegWriteE $end
$var wire 1 C MemtoRegE $end
$var wire 1 F MemWriteE $end
$var reg 32 J# ALUOutM [31:0] $end
$var reg 1 E MemWriteM $end
$var reg 1 B MemtoRegM $end
$var reg 1 8 RegWriteM $end
$var reg 1 3 StopM $end
$var reg 32 K# bM [31:0] $end
$var reg 5 L# rwM [4:0] $end
$upscope $end
$scope module reg_id_ex $end
$var wire 5 M# ALUControlD [4:0] $end
$var wire 1 O ALUSrcD $end
$var wire 32 N# ImmD [31:0] $end
$var wire 1 G MemWriteD $end
$var wire 1 D MemtoRegD $end
$var wire 1 : RegWriteD $end
$var wire 32 O# aD [31:0] $end
$var wire 32 P# bD [31:0] $end
$var wire 1 ! clk $end
$var wire 1 , isJalD $end
$var wire 1 * isLWHazard $end
$var wire 1 ) isShiftD $end
$var wire 1 " reset $end
$var wire 5 Q# rwD [4:0] $end
$var wire 1 6 StopD $end
$var wire 32 R# PC4D [31:0] $end
$var reg 5 S# ALUControlE [4:0] $end
$var reg 1 N ALUSrcE $end
$var reg 32 T# ImmE [31:0] $end
$var reg 1 F MemWriteE $end
$var reg 1 C MemtoRegE $end
$var reg 32 U# PC4E [31:0] $end
$var reg 1 9 RegWriteE $end
$var reg 1 5 StopE $end
$var reg 32 V# aE [31:0] $end
$var reg 32 W# bE [31:0] $end
$var reg 1 + isJalE $end
$var reg 1 ( isShiftE $end
$var reg 5 X# rwE_tmp [4:0] $end
$upscope $end
$scope module reg_if_id $end
$var wire 32 Y# InstructionF [31:0] $end
$var wire 32 Z# PC4 [31:0] $end
$var wire 1 4 StopF $end
$var wire 1 ! clk $end
$var wire 1 * isLWHazard $end
$var wire 1 " reset $end
$var reg 32 [# InstructionD [31:0] $end
$var reg 32 \# PC4D [31:0] $end
$var reg 1 6 StopD $end
$upscope $end
$scope module reg_mem_wb $end
$var wire 32 ]# ALUOutM [31:0] $end
$var wire 32 ^# MemOutM [31:0] $end
$var wire 1 B MemtoRegM $end
$var wire 1 8 RegWriteM $end
$var wire 1 ! clk $end
$var wire 1 " reset $end
$var wire 5 _# rwM [4:0] $end
$var reg 32 `# ALUOutW [31:0] $end
$var reg 32 a# MemOutW [31:0] $end
$var reg 1 A MemtoRegW $end
$var reg 1 7 RegWriteW $end
$var reg 5 b# rwW [4:0] $end
$upscope $end
$upscope $end
$upscope $end
$enddefinitions $end
#0
$dumpvars
b0 b#
b0 a#
b0 `#
b0 _#
bx ^#
b0 ]#
b0 \#
b0 [#
b1 Z#
b100000000010010000000000001100 Y#
b0 X#
b0 W#
b0 V#
b0 U#
b0 T#
b0 S#
b0 R#
b0 Q#
bx P#
bx O#
b0 N#
b0 M#
b0 L#
b0 K#
b0 J#
b0 I#
b0 H#
b0 G#
b10000000000000000000000000000011 F#
b1000000000 E#
b0 D#
bx C#
b0 B#
0A#
bx @#
b0 ?#
b0xxxxxxxxxxxxxxxxxxxxxxxxxxxxxxxx >#
bx =#
b0 <#
b0xxxxxxxxxxxxxxxxxxxxxxxxxxxxxxxx ;#
b0 :#
b0 9#
b0 8#
bx 7#
b0 6#
b0 5#
b0 4#
b0 3#
b0 2#
01#
b100000000010010000000000001100 0#
b0 /#
b1 .#
b0 -#
b0 ,#
bx +#
b0 *#
b1 )#
0(#
b0 '#
b100000000010010000000000001100 &#
b1 %#
b100000000010010000000000001100 $#
b1 ##
b0 "#
b0 !#
bx ~"
b0 }"
b0 |"
b0 {"
b100000 z"
bx y"
bx x"
b0 w"
b0 v"
b0 u"
bx t"
bx s"
b0 r"
b0 q"
b0 p"
b0 o"
b0 n"
b0 m"
b0 l"
b0 k"
b0 j"
b0 i"
b0 h"
bx g"
bx f"
b0 e"
bx d"
b0 c"
b0 b"
bx a"
b0 `"
bx _"
b0 ^"
b0 ]"
bx \"
b0 ["
b0 Z"
b0 Y"
zX"
b0 W"
b0 V"
b0 U"
bz T"
0S"
0R"
0Q"
0P"
b0 O"
b0 N"
b0 M"
0L"
0K"
0J"
0I"
0H"
b0 G"
b0 F"
b0 E"
b0 D"
0C"
0B"
0A"
0@"
0?"
bx >"
0="
0<"
0;"
0:"
09"
b0 8"
b0 7"
b0 6"
b0 5"
b0xxxxxxxxxxxxxxxxxxxxxxxxxxxxxx 4"
b0 3"
12"
01"
00"
0/"
0."
0-"
0,"
0+"
0*"
0)"
0("
0'"
0&"
0%"
0$"
bx #"
bx ""
bx !"
b0 ~
b0 }
x|
0{
0z
b0 y
b0 x
b0 w
bx v
bx u
b0 t
b0 s
b0 r
b0 q
b0 p
b0 o
b0 n
0m
b0 l
b0 k
zj
b0 i
bx h
bx g
b0 f
b0 e
b0 d
b0 c
b0 b
b0 a
b0 `
b0 _
b0 ^
b0 ]
b0 \
b0 [
b0 Z
b0 Y
b0 X
b0 W
b0 V
b0 U
b0 T
b0 S
b0 R
b0 Q
b0 P
0O
0N
b0 M
b0 L
b0 K
b100000000010010000000000001100 J
bx I
b0 H
0G
0F
0E
0D
0C
0B
0A
b1 @
b0 ?
b0 >
b0 =
b0 <
b0 ;
0:
09
08
07
06
05
04
03
b0 2
bx 1
b0 0
bx /
b0 .
b0 -
0,
0+
0*
0)
0(
b0 '
b0 &
b0 %
b0 $
b0 #
0"
1!
$end
#1
b100000 z"
0!
#2
1!
#3
b0 4"
1|
b0 1
b0 #"
b0 a"
b0 ~"
b0 +#
b0 O#
b0 /
b0 ""
b0 g"
b0 P#
b0 !"
b0 \"
b0 u
b0 f"
b0 t"
b0 y"
b0 v
b0 s"
b0 x"
0!
1"
#4
1O
1:
b1111 T
b1111 O"
b1111 W"
b1111 M#
0)
b1001 '
b1001 r
b1001 Y"
b1001 Q#
11"
12"
1L"
1&"
b1111 N"
b1111 V"
b1111 ["
0z
1R"
b100000000010101111111111111110 J
b100000000010101111111111111110 &#
b100000000010101111111111111110 Y#
b10010000000000001100 ;
b10010000000000001100 5"
b10010000000000001100 }"
b10010000000000001100 ,#
b1001 q
b1001 U"
00"
b100000000010101111111111111110 $#
b100000000010101111111111111110 0#
b1100 y
b1100 M
b1100 E"
b1100 N#
b10010000000000001100 3"
b1001 s
b1001 i"
b1001 v"
b1100 ~
b1100 n"
b1000 x
b1000 o"
b1000000000000000 q"
b10 ##
b10 .#
b10 @
b10 %#
b10 )#
b10 Z#
b1 "#
b1 '#
b1 /#
b100000000010010000000000001100 K
b100000000010010000000000001100 D"
b100000000010010000000000001100 p"
b100000000010010000000000001100 [#
b1101 <
b1101 6"
b1101 |"
b1101 *#
b1 ?
b1 8"
b1 R#
b1 \#
bx H
bx 6#
bx a#
1!
#5
0!
#6
b1010 '
b1010 r
b1010 Y"
b1010 Q#
b1100 R
b1100 \
b1100 i
b1100 ]"
b1100 b"
b1100 G#
b1111111111111111 }
1m
b10101111111111111110 ;
b10101111111111111110 5"
b10101111111111111110 }"
b10101111111111111110 ,#
b1010 q
b1010 U"
b100000000010110000000000010111 J
b100000000010110000000000010111 &#
b100000000010110000000000010111 Y#
b1100 ]
b1100 a
b1100 f
b1100 e
b1001 &
b1001 U
b1001 l
b1001 j"
b1001 H#
b100 Y
b1100 _
b1100 `
b11111111111111111111111111111110 y
b11111111111111111111111111111110 M
b11111111111111111111111111111110 E"
b11111111111111111111111111111110 N#
b10101111111111111110 3"
b11111 n
b11111 w
b1010 s
b1010 i"
b1010 v"
b111110 ~
b111110 n"
b11 ##
b11 .#
b100000000010110000000000010111 $#
b100000000010110000000000010111 0#
b1111 S
b1111 ^
b1111 b
b1111 S#
b1001 %
b1001 V
b1001 X#
b1 >
b1 Z
b1 U#
b1100 L
b1100 [
b1100 T#
1N
19
b100000000010101111111111111110 K
b100000000010101111111111111110 D"
b100000000010101111111111111110 p"
b100000000010101111111111111110 [#
b0 <
b0 6"
b0 |"
b0 *#
b10 ?
b10 8"
b10 R#
b10 \#
b11 @
b11 %#
b11 )#
b11 Z#
b10 "#
b10 '#
b10 /#
1!
#7
0!
#8
b1011 '
b1011 r
b1011 Y"
b1011 Q#
b11111111111111111111111111111110 R
b11111111111111111111111111111110 \
b11111111111111111111111111111110 i
b11111111111111111111111111111110 ]"
b11111111111111111111111111111110 b"
b11111111111111111111111111111110 G#
b100000000000100000000000000000 J
b100000000000100000000000000000 &#
b100000000000100000000000000000 Y#
b0 }
0m
b10110000000000010111 ;
b10110000000000010111 5"
b10110000000000010111 }"
b10110000000000010111 ,#
b1011 q
b1011 U"
b11111111111111111111111111111110 ]
b11111111111111111111111111111110 a
b11111111111111111111111111111110 f
b11111111111111111111111111111110 e
b100000000000100000000000000000 $#
b100000000000100000000000000000 0#
b10111 y
b10111 M
b10111 E"
b10111 N#
b10110000000000010111 3"
b0 n
b0 w
b1011 s
b1011 i"
b1011 v"
b10111 ~
b10111 n"
b100 ##
b100 .#
b1010 &
b1010 U
b1010 l
b1010 j"
b1010 H#
b1000 Y
b11111111111111111111111111111110 _
b11111111111111111111111111111110 `
b110000000000000000000000000000000000 B#
b100 @
b100 %#
b100 )#
b100 Z#
b11 "#
b11 '#
b11 /#
b100000000010110000000000010111 K
b100000000010110000000000010111 D"
b100000000010110000000000010111 p"
b100000000010110000000000010111 [#
b11010 <
b11010 6"
b11010 |"
b11010 *#
b11 ?
b11 8"
b11 R#
b11 \#
b1010 %
b1010 V
b1010 X#
b10 >
b10 Z
b10 U#
b11111111111111111111111111111110 L
b11111111111111111111111111111110 [
b11111111111111111111111111111110 T#
b1001 $
b1001 p
b1001 k"
b1001 L#
b1001 _#
b1100 <#
b1100 ?#
b1100 2#
b1100 :#
b110000000000000000000000000000000000 3#
b110000000000000000000000000000000000 9#
b1100 Q
b1100 M"
b1100 `"
b1100 e"
b1100 8#
b1100 J#
b1100 ]#
18
1!
#9
0!
#10
b10 '
b10 r
b10 Y"
b10 Q#
b10111 R
b10111 \
b10111 i
b10111 ]"
b10111 b"
b10111 G#
b10111 ]
b10111 a
b10111 f
b10111 e
b100000000000000000 ;
b100000000000000000 5"
b100000000000000000 }"
b100000000000000000 ,#
b10 q
b10 U"
b100000000000110000000000010011 J
b100000000000110000000000010011 &#
b100000000000110000000000010011 Y#
b1100 2
b1100 k
b1100 r"
b1111111111111111111111111111111000000000000000000000000000000000 B#
b1011 &
b1011 U
b1011 l
b1011 j"
b1011 H#
b1100 Y
b10111 _
b10111 `
b0 y
b0 M
b0 E"
b0 N#
b100000000000000000 3"
b10 s
b10 i"
b10 v"
b0 ~
b0 n"
b101 ##
b101 .#
b100000000000110000000000010011 $#
b100000000000110000000000010011 0#
b1001 #
b1001 o
b1001 w"
b1001 b#
b1100 P
b1100 `#
17
b1010 $
b1010 p
b1010 k"
b1010 L#
b1010 _#
b11111111111111111111111111111110 <#
b11111111111111111111111111111110 ?#
b11111111111111111111111111111110 2#
b11111111111111111111111111111110 :#
b1111111111111111111111111111111000000000000000000000000000000000 3#
b1111111111111111111111111111111000000000000000000000000000000000 9#
b11111111111111111111111111111110 Q
b11111111111111111111111111111110 M"
b11111111111111111111111111111110 `"
b11111111111111111111111111111110 e"
b11111111111111111111111111111110 8#
b11111111111111111111111111111110 J#
b11111111111111111111111111111110 ]#
b1011 %
b1011 V
b1011 X#
b11 >
b11 Z
b11 U#
b10111 L
b10111 [
b10111 T#
b100000000000100000000000000000 K
b100000000000100000000000000000 D"
b100000000000100000000000000000 p"
b100000000000100000000000000000 [#
b100 <
b100 6"
b100 |"
b100 *#
b100 ?
b100 8"
b100 R#
b100 \#
b101 @
b101 %#
b101 )#
b101 Z#
b100 "#
b100 '#
b100 /#
1!
#11
0!
#12
b11 '
b11 r
b11 Y"
b11 Q#
b0 R
b0 \
b0 i
b0 ]"
b0 b"
b0 G#
b100000000001000000000000000001 J
b100000000001000000000000000001 &#
b100000000001000000000000000001 Y#
b110000000000010011 ;
b110000000000010011 5"
b110000000000010011 }"
b110000000000010011 ,#
b11 q
b11 U"
b0 ]
b0 a
b0 f
b0 e
b100000000001000000000000000001 $#
b100000000001000000000000000001 0#
b10011 y
b10011 M
b10011 E"
b10011 N#
b110000000000010011 3"
b11 s
b11 i"
b11 v"
b10011 ~
b10011 n"
b110 ##
b110 .#
b10 &
b10 U
b10 l
b10 j"
b10 H#
b10000 Y
b0 _
b0 `
b1011100000000000000000000000000000000 B#
b11111111111111111111111111111110 2
b11111111111111111111111111111110 k
b11111111111111111111111111111110 r"
b110 @
b110 %#
b110 )#
b110 Z#
b101 "#
b101 '#
b101 /#
b100000000000110000000000010011 K
b100000000000110000000000010011 D"
b100000000000110000000000010011 p"
b100000000000110000000000010011 [#
b11000 <
b11000 6"
b11000 |"
b11000 *#
b101 ?
b101 8"
b101 R#
b101 \#
b10 %
b10 V
b10 X#
b100 >
b100 Z
b100 U#
b0 L
b0 [
b0 T#
b1011 $
b1011 p
b1011 k"
b1011 L#
b1011 _#
b10111 <#
b10111 ?#
b10111 2#
b10111 :#
b1011100000000000000000000000000000000 3#
b1011100000000000000000000000000000000 9#
b10111 Q
b10111 M"
b10111 `"
b10111 e"
b10111 8#
b10111 J#
b10111 ]#
b1010 #
b1010 o
b1010 w"
b1010 b#
b11111111111111111111111111111110 P
b11111111111111111111111111111110 `#
1!
#13
0!
#14
b100 '
b100 r
b100 Y"
b100 Q#
b10011 R
b10011 \
b10011 i
b10011 ]"
b10011 b"
b10011 G#
b10011 ]
b10011 a
b10011 f
b10011 e
b1000000000000000001 ;
b1000000000000000001 5"
b1000000000000000001 }"
b1000000000000000001 ,#
b100 q
b100 U"
b100000000010001111111111111111 J
b100000000010001111111111111111 &#
b100000000010001111111111111111 Y#
b10111 2
b10111 k
b10111 r"
b0 B#
b11 &
b11 U
b11 l
b11 j"
b11 H#
b10100 Y
b10011 _
b10011 `
b1 y
b1 M
b1 E"
b1 N#
b1000000000000000001 3"
b100 s
b100 i"
b100 v"
b1 ~
b1 n"
b111 ##
b111 .#
b100000000010001111111111111111 $#
b100000000010001111111111111111 0#
b1011 #
b1011 o
b1011 w"
b1011 b#
b10111 P
b10111 `#
b10 $
b10 p
b10 k"
b10 L#
b10 _#
b0 <#
b0 ?#
b0 2#
b0 :#
b0 3#
b0 9#
b0 Q
b0 M"
b0 `"
b0 e"
b0 8#
b0 J#
b0 ]#
b11 %
b11 V
b11 X#
b101 >
b101 Z
b101 U#
b10011 L
b10011 [
b10011 T#
b100000000001000000000000000001 K
b100000000001000000000000000001 D"
b100000000001000000000000000001 p"
b100000000001000000000000000001 [#
b111 <
b111 6"
b111 |"
b111 *#
b110 ?
b110 8"
b110 R#
b110 \#
b111 @
b111 %#
b111 )#
b111 Z#
b110 "#
b110 '#
b110 /#
1!
#15
0!
